input/arb2/simulation/transcript
# vsim -c -voptargs="+acc" -do "vcd file ../traces/t1.vcd; vcd add /*; run -all; vcd flush; quit" work.arb2_tb 
# Start time: 15:23:37 on Nov 25,2024
# ** Note: (vsim-3812) Design is being optimized...
# //  ModelSim SE-64 2019.4 Oct 15 2019 Linux 6.8.0-45-generic
# //
# //  Copyright 1991-2019 Mentor Graphics Corporation
# //  All Rights Reserved.
# //
# //  ModelSim SE-64 and its associated documentation contain trade
# //  secrets and commercial or financial information that are the property of
# //  Mentor Graphics Corporation and are privileged, confidential,
# //  and exempt from disclosure under the Freedom of Information Act,
# //  5 U.S.C. Section 552. Furthermore, this information
# //  is prohibited from disclosure under the Trade Secrets Act,
# //  18 U.S.C. Section 1905.
# //
# ** Warning: License feature 'msimhdlsim' will expire in 5 days.
# Loading work.arb2_tb(fast)
# Loading work.arb2(fast)
# vcd file ../traces/t1.vcd
#  vcd add /*
#  run -all
#                    0 clk=0 rst=1 req1=0 req2=0 gnt1=0 gnt2=0
#                    5 clk=1 rst=1 req1=0 req2=0 gnt1=0 gnt2=0
#                   10 clk=0 rst=0 req1=0 req2=1 gnt1=0 gnt2=1
#                   15 clk=1 rst=0 req1=0 req2=1 gnt1=0 gnt2=1
#                   20 clk=0 rst=0 req1=1 req2=1 gnt1=1 gnt2=0
#                   25 clk=1 rst=0 req1=1 req2=1 gnt1=0 gnt2=1
#                   30 clk=0 rst=0 req1=1 req2=1 gnt1=0 gnt2=1
#                   35 clk=1 rst=0 req1=1 req2=1 gnt1=1 gnt2=0
#                   40 clk=0 rst=0 req1=1 req2=0 gnt1=1 gnt2=0
#                   45 clk=1 rst=0 req1=1 req2=0 gnt1=1 gnt2=0
#                   50 clk=0 rst=0 req1=1 req2=1 gnt1=0 gnt2=1
#                   55 clk=1 rst=0 req1=1 req2=1 gnt1=1 gnt2=0
#                   60 clk=0 rst=0 req1=0 req2=1 gnt1=0 gnt2=1
#                   65 clk=1 rst=0 req1=0 req2=1 gnt1=0 gnt2=1
#                   70 clk=0 rst=0 req1=1 req2=0 gnt1=1 gnt2=0
#                   75 clk=1 rst=0 req1=1 req2=0 gnt1=1 gnt2=0
#                   80 clk=0 rst=0 req1=1 req2=0 gnt1=1 gnt2=0
#                   85 clk=1 rst=0 req1=1 req2=0 gnt1=1 gnt2=0
#                   90 clk=0 rst=0 req1=1 req2=0 gnt1=1 gnt2=0
#                   95 clk=1 rst=0 req1=1 req2=0 gnt1=1 gnt2=0
#                  100 clk=0 rst=0 req1=1 req2=1 gnt1=0 gnt2=1
#                  105 clk=1 rst=0 req1=1 req2=1 gnt1=1 gnt2=0
#                  110 clk=0 rst=0 req1=0 req2=1 gnt1=0 gnt2=1
#                  115 clk=1 rst=0 req1=0 req2=1 gnt1=0 gnt2=1
#                  120 clk=0 rst=0 req1=0 req2=0 gnt1=0 gnt2=0
#                  125 clk=1 rst=0 req1=0 req2=0 gnt1=0 gnt2=0
#                  130 clk=0 rst=0 req1=0 req2=1 gnt1=0 gnt2=1
#                  135 clk=1 rst=0 req1=0 req2=1 gnt1=0 gnt2=1
#                  140 clk=0 rst=0 req1=0 req2=1 gnt1=0 gnt2=1
#                  145 clk=1 rst=0 req1=0 req2=1 gnt1=0 gnt2=1
#                  150 clk=0 rst=0 req1=1 req2=1 gnt1=1 gnt2=0
#                  155 clk=1 rst=0 req1=1 req2=1 gnt1=0 gnt2=1
#                  160 clk=0 rst=0 req1=1 req2=0 gnt1=1 gnt2=0
#                  165 clk=1 rst=0 req1=1 req2=0 gnt1=1 gnt2=0
#                  170 clk=0 rst=0 req1=0 req2=0 gnt1=0 gnt2=0
#                  175 clk=1 rst=0 req1=0 req2=0 gnt1=0 gnt2=0
#                  180 clk=0 rst=0 req1=0 req2=1 gnt1=0 gnt2=1
#                  185 clk=1 rst=0 req1=0 req2=1 gnt1=0 gnt2=1
#                  190 clk=0 rst=0 req1=0 req2=1 gnt1=0 gnt2=1
#                  195 clk=1 rst=0 req1=0 req2=1 gnt1=0 gnt2=1
#                  200 clk=0 rst=0 req1=1 req2=1 gnt1=1 gnt2=0
#                  205 clk=1 rst=0 req1=1 req2=1 gnt1=0 gnt2=1
#                  210 clk=0 rst=0 req1=1 req2=1 gnt1=0 gnt2=1
#                  215 clk=1 rst=0 req1=1 req2=1 gnt1=1 gnt2=0
#                  220 clk=0 rst=0 req1=0 req2=0 gnt1=0 gnt2=0
#                  225 clk=1 rst=0 req1=0 req2=0 gnt1=0 gnt2=0
#                  230 clk=0 rst=0 req1=1 req2=1 gnt1=1 gnt2=0
#                  235 clk=1 rst=0 req1=1 req2=1 gnt1=0 gnt2=1
#                  240 clk=0 rst=0 req1=1 req2=0 gnt1=1 gnt2=0
#                  245 clk=1 rst=0 req1=1 req2=0 gnt1=1 gnt2=0
#                  250 clk=0 rst=0 req1=0 req2=0 gnt1=0 gnt2=0
#                  255 clk=1 rst=0 req1=0 req2=0 gnt1=0 gnt2=0
#                  260 clk=0 rst=0 req1=0 req2=0 gnt1=0 gnt2=0
#                  265 clk=1 rst=0 req1=0 req2=0 gnt1=0 gnt2=0
#                  270 clk=0 rst=0 req1=1 req2=0 gnt1=1 gnt2=0
#                  275 clk=1 rst=0 req1=1 req2=0 gnt1=1 gnt2=0
#                  280 clk=0 rst=0 req1=0 req2=1 gnt1=0 gnt2=1
#                  285 clk=1 rst=0 req1=0 req2=1 gnt1=0 gnt2=1
#                  290 clk=0 rst=0 req1=1 req2=0 gnt1=1 gnt2=0
#                  295 clk=1 rst=0 req1=1 req2=0 gnt1=1 gnt2=0
#                  300 clk=0 rst=0 req1=0 req2=0 gnt1=0 gnt2=0
#                  305 clk=1 rst=0 req1=0 req2=0 gnt1=0 gnt2=0
#                  310 clk=0 rst=0 req1=0 req2=0 gnt1=0 gnt2=0
#                  315 clk=1 rst=0 req1=0 req2=0 gnt1=0 gnt2=0
#                  320 clk=0 rst=0 req1=1 req2=1 gnt1=1 gnt2=0
#                  325 clk=1 rst=0 req1=1 req2=1 gnt1=0 gnt2=1
#                  330 clk=0 rst=0 req1=1 req2=1 gnt1=0 gnt2=1
#                  335 clk=1 rst=0 req1=1 req2=1 gnt1=1 gnt2=0
#                  340 clk=0 rst=0 req1=1 req2=0 gnt1=1 gnt2=0
#                  345 clk=1 rst=0 req1=1 req2=0 gnt1=1 gnt2=0
#                  350 clk=0 rst=0 req1=0 req2=1 gnt1=0 gnt2=1
#                  355 clk=1 rst=0 req1=0 req2=1 gnt1=0 gnt2=1
#                  360 clk=0 rst=0 req1=1 req2=1 gnt1=1 gnt2=0
#                  365 clk=1 rst=0 req1=1 req2=1 gnt1=0 gnt2=1
#                  370 clk=0 rst=0 req1=0 req2=0 gnt1=0 gnt2=0
#                  375 clk=1 rst=0 req1=0 req2=0 gnt1=0 gnt2=0
#                  380 clk=0 rst=0 req1=1 req2=1 gnt1=1 gnt2=0
#                  385 clk=1 rst=0 req1=1 req2=1 gnt1=0 gnt2=1
#                  390 clk=0 rst=0 req1=0 req2=1 gnt1=0 gnt2=1
#                  395 clk=1 rst=0 req1=0 req2=1 gnt1=0 gnt2=1
#                  400 clk=0 rst=0 req1=1 req2=0 gnt1=1 gnt2=0
#                  405 clk=1 rst=0 req1=1 req2=0 gnt1=1 gnt2=0
#                  410 clk=0 rst=0 req1=1 req2=1 gnt1=0 gnt2=1
#                  415 clk=1 rst=0 req1=1 req2=1 gnt1=1 gnt2=0
#                  420 clk=0 rst=0 req1=1 req2=0 gnt1=1 gnt2=0
#                  425 clk=1 rst=0 req1=1 req2=0 gnt1=1 gnt2=0
#                  430 clk=0 rst=0 req1=1 req2=1 gnt1=0 gnt2=1
#                  435 clk=1 rst=0 req1=1 req2=1 gnt1=1 gnt2=0
#                  440 clk=0 rst=0 req1=0 req2=0 gnt1=0 gnt2=0
#                  445 clk=1 rst=0 req1=0 req2=0 gnt1=0 gnt2=0
#                  450 clk=0 rst=0 req1=0 req2=0 gnt1=0 gnt2=0
#                  455 clk=1 rst=0 req1=0 req2=0 gnt1=0 gnt2=0
#                  460 clk=0 rst=0 req1=1 req2=1 gnt1=1 gnt2=0
#                  465 clk=1 rst=0 req1=1 req2=1 gnt1=0 gnt2=1
#                  470 clk=0 rst=0 req1=0 req2=0 gnt1=0 gnt2=0
#                  475 clk=1 rst=0 req1=0 req2=0 gnt1=0 gnt2=0
#                  480 clk=0 rst=0 req1=1 req2=1 gnt1=1 gnt2=0
#                  485 clk=1 rst=0 req1=1 req2=1 gnt1=0 gnt2=1
#                  490 clk=0 rst=0 req1=1 req2=1 gnt1=0 gnt2=1
#                  495 clk=1 rst=0 req1=1 req2=1 gnt1=1 gnt2=0
#                  500 clk=0 rst=0 req1=1 req2=0 gnt1=1 gnt2=0
#                  505 clk=1 rst=0 req1=1 req2=0 gnt1=1 gnt2=0
#                  510 clk=0 rst=0 req1=1 req2=1 gnt1=0 gnt2=1
#                  515 clk=1 rst=0 req1=1 req2=1 gnt1=1 gnt2=0
#                  520 clk=0 rst=0 req1=1 req2=0 gnt1=1 gnt2=0
#                  525 clk=1 rst=0 req1=1 req2=0 gnt1=1 gnt2=0
#                  530 clk=0 rst=0 req1=0 req2=0 gnt1=0 gnt2=0
#                  535 clk=1 rst=0 req1=0 req2=0 gnt1=0 gnt2=0
#                  540 clk=0 rst=0 req1=0 req2=0 gnt1=0 gnt2=0
#                  545 clk=1 rst=0 req1=0 req2=0 gnt1=0 gnt2=0
#                  550 clk=0 rst=0 req1=0 req2=0 gnt1=0 gnt2=0
#                  555 clk=1 rst=0 req1=0 req2=0 gnt1=0 gnt2=0
#                  560 clk=0 rst=0 req1=1 req2=1 gnt1=1 gnt2=0
#                  565 clk=1 rst=0 req1=1 req2=1 gnt1=0 gnt2=1
#                  570 clk=0 rst=0 req1=1 req2=1 gnt1=0 gnt2=1
#                  575 clk=1 rst=0 req1=1 req2=1 gnt1=1 gnt2=0
#                  580 clk=0 rst=0 req1=1 req2=0 gnt1=1 gnt2=0
#                  585 clk=1 rst=0 req1=1 req2=0 gnt1=1 gnt2=0
#                  590 clk=0 rst=0 req1=1 req2=1 gnt1=0 gnt2=1
#                  595 clk=1 rst=0 req1=1 req2=1 gnt1=1 gnt2=0
#                  600 clk=0 rst=0 req1=0 req2=0 gnt1=0 gnt2=0
#                  605 clk=1 rst=0 req1=0 req2=0 gnt1=0 gnt2=0
#                  610 clk=0 rst=0 req1=1 req2=1 gnt1=1 gnt2=0
#                  615 clk=1 rst=0 req1=1 req2=1 gnt1=0 gnt2=1
#                  620 clk=0 rst=0 req1=0 req2=1 gnt1=0 gnt2=1
#                  625 clk=1 rst=0 req1=0 req2=1 gnt1=0 gnt2=1
#                  630 clk=0 rst=0 req1=1 req2=1 gnt1=1 gnt2=0
#                  635 clk=1 rst=0 req1=1 req2=1 gnt1=0 gnt2=1
#                  640 clk=0 rst=0 req1=1 req2=0 gnt1=1 gnt2=0
#                  645 clk=1 rst=0 req1=1 req2=0 gnt1=1 gnt2=0
#                  650 clk=0 rst=0 req1=0 req2=0 gnt1=0 gnt2=0
#                  655 clk=1 rst=0 req1=0 req2=0 gnt1=0 gnt2=0
#                  660 clk=0 rst=0 req1=1 req2=0 gnt1=1 gnt2=0
#                  665 clk=1 rst=0 req1=1 req2=0 gnt1=1 gnt2=0
#                  670 clk=0 rst=0 req1=0 req2=0 gnt1=0 gnt2=0
#                  675 clk=1 rst=0 req1=0 req2=0 gnt1=0 gnt2=0
#                  680 clk=0 rst=0 req1=1 req2=1 gnt1=1 gnt2=0
#                  685 clk=1 rst=0 req1=1 req2=1 gnt1=0 gnt2=1
#                  690 clk=0 rst=0 req1=0 req2=0 gnt1=0 gnt2=0
#                  695 clk=1 rst=0 req1=0 req2=0 gnt1=0 gnt2=0
#                  700 clk=0 rst=0 req1=1 req2=0 gnt1=1 gnt2=0
#                  705 clk=1 rst=0 req1=1 req2=0 gnt1=1 gnt2=0
#                  710 clk=0 rst=0 req1=0 req2=0 gnt1=0 gnt2=0
#                  715 clk=1 rst=0 req1=0 req2=0 gnt1=0 gnt2=0
#                  720 clk=0 rst=0 req1=1 req2=0 gnt1=1 gnt2=0
#                  725 clk=1 rst=0 req1=1 req2=0 gnt1=1 gnt2=0
#                  730 clk=0 rst=0 req1=0 req2=1 gnt1=0 gnt2=1
#                  735 clk=1 rst=0 req1=0 req2=1 gnt1=0 gnt2=1
#                  740 clk=0 rst=0 req1=0 req2=1 gnt1=0 gnt2=1
#                  745 clk=1 rst=0 req1=0 req2=1 gnt1=0 gnt2=1
#                  750 clk=0 rst=0 req1=1 req2=1 gnt1=1 gnt2=0
#                  755 clk=1 rst=0 req1=1 req2=1 gnt1=0 gnt2=1
#                  760 clk=0 rst=0 req1=1 req2=1 gnt1=0 gnt2=1
#                  765 clk=1 rst=0 req1=1 req2=1 gnt1=1 gnt2=0
#                  770 clk=0 rst=0 req1=0 req2=0 gnt1=0 gnt2=0
#                  775 clk=1 rst=0 req1=0 req2=0 gnt1=0 gnt2=0
#                  780 clk=0 rst=0 req1=0 req2=1 gnt1=0 gnt2=1
#                  785 clk=1 rst=0 req1=0 req2=1 gnt1=0 gnt2=1
#                  790 clk=0 rst=0 req1=0 req2=0 gnt1=0 gnt2=0
#                  795 clk=1 rst=0 req1=0 req2=0 gnt1=0 gnt2=0
#                  800 clk=0 rst=0 req1=1 req2=1 gnt1=1 gnt2=0
#                  805 clk=1 rst=0 req1=1 req2=1 gnt1=0 gnt2=1
#                  810 clk=0 rst=0 req1=0 req2=0 gnt1=0 gnt2=0
#                  815 clk=1 rst=0 req1=0 req2=0 gnt1=0 gnt2=0
#                  820 clk=0 rst=0 req1=0 req2=1 gnt1=0 gnt2=1
#                  825 clk=1 rst=0 req1=0 req2=1 gnt1=0 gnt2=1
#                  830 clk=0 rst=0 req1=1 req2=0 gnt1=1 gnt2=0
#                  835 clk=1 rst=0 req1=1 req2=0 gnt1=1 gnt2=0
#                  840 clk=0 rst=0 req1=0 req2=0 gnt1=0 gnt2=0
#                  845 clk=1 rst=0 req1=0 req2=0 gnt1=0 gnt2=0
#                  850 clk=0 rst=0 req1=1 req2=1 gnt1=1 gnt2=0
#                  855 clk=1 rst=0 req1=1 req2=1 gnt1=0 gnt2=1
#                  860 clk=0 rst=0 req1=0 req2=0 gnt1=0 gnt2=0
#                  865 clk=1 rst=0 req1=0 req2=0 gnt1=0 gnt2=0
#                  870 clk=0 rst=0 req1=0 req2=1 gnt1=0 gnt2=1
#                  875 clk=1 rst=0 req1=0 req2=1 gnt1=0 gnt2=1
#                  880 clk=0 rst=0 req1=0 req2=0 gnt1=0 gnt2=0
#                  885 clk=1 rst=0 req1=0 req2=0 gnt1=0 gnt2=0
#                  890 clk=0 rst=0 req1=1 req2=0 gnt1=1 gnt2=0
#                  895 clk=1 rst=0 req1=1 req2=0 gnt1=1 gnt2=0
#                  900 clk=0 rst=0 req1=0 req2=0 gnt1=0 gnt2=0
#                  905 clk=1 rst=0 req1=0 req2=0 gnt1=0 gnt2=0
#                  910 clk=0 rst=0 req1=1 req2=0 gnt1=1 gnt2=0
#                  915 clk=1 rst=0 req1=1 req2=0 gnt1=1 gnt2=0
#                  920 clk=0 rst=0 req1=1 req2=1 gnt1=0 gnt2=1
#                  925 clk=1 rst=0 req1=1 req2=1 gnt1=1 gnt2=0
#                  930 clk=0 rst=0 req1=0 req2=0 gnt1=0 gnt2=0
#                  935 clk=1 rst=0 req1=0 req2=0 gnt1=0 gnt2=0
#                  940 clk=0 rst=0 req1=0 req2=0 gnt1=0 gnt2=0
#                  945 clk=1 rst=0 req1=0 req2=0 gnt1=0 gnt2=0
#                  950 clk=0 rst=0 req1=1 req2=0 gnt1=1 gnt2=0
#                  955 clk=1 rst=0 req1=1 req2=0 gnt1=1 gnt2=0
#                  960 clk=0 rst=0 req1=0 req2=0 gnt1=0 gnt2=0
#                  965 clk=1 rst=0 req1=0 req2=0 gnt1=0 gnt2=0
#                  970 clk=0 rst=0 req1=0 req2=1 gnt1=0 gnt2=1
#                  975 clk=1 rst=0 req1=0 req2=1 gnt1=0 gnt2=1
#                  980 clk=0 rst=0 req1=1 req2=1 gnt1=1 gnt2=0
#                  985 clk=1 rst=0 req1=1 req2=1 gnt1=0 gnt2=1
#                  990 clk=0 rst=0 req1=0 req2=1 gnt1=0 gnt2=1
#                  995 clk=1 rst=0 req1=0 req2=1 gnt1=0 gnt2=1
#                 1000 clk=0 rst=0 req1=1 req2=1 gnt1=1 gnt2=0
#                 1005 clk=1 rst=0 req1=1 req2=1 gnt1=0 gnt2=1
#                 1010 clk=0 rst=0 req1=0 req2=0 gnt1=0 gnt2=0
#                 1015 clk=1 rst=0 req1=0 req2=0 gnt1=0 gnt2=0
#                 1020 clk=0 rst=0 req1=1 req2=1 gnt1=1 gnt2=0
#                 1025 clk=1 rst=0 req1=1 req2=1 gnt1=0 gnt2=1
#                 1030 clk=0 rst=0 req1=1 req2=1 gnt1=0 gnt2=1
#                 1035 clk=1 rst=0 req1=1 req2=1 gnt1=1 gnt2=0
#                 1040 clk=0 rst=0 req1=1 req2=0 gnt1=1 gnt2=0
#                 1045 clk=1 rst=0 req1=1 req2=0 gnt1=1 gnt2=0
#                 1050 clk=0 rst=0 req1=1 req2=1 gnt1=0 gnt2=1
#                 1055 clk=1 rst=0 req1=1 req2=1 gnt1=1 gnt2=0
#                 1060 clk=0 rst=0 req1=0 req2=0 gnt1=0 gnt2=0
#                 1065 clk=1 rst=0 req1=0 req2=0 gnt1=0 gnt2=0
#                 1070 clk=0 rst=0 req1=0 req2=0 gnt1=0 gnt2=0
#                 1075 clk=1 rst=0 req1=0 req2=0 gnt1=0 gnt2=0
#                 1080 clk=0 rst=0 req1=1 req2=1 gnt1=1 gnt2=0
#                 1085 clk=1 rst=0 req1=1 req2=1 gnt1=0 gnt2=1
#                 1090 clk=0 rst=0 req1=0 req2=0 gnt1=0 gnt2=0
#                 1095 clk=1 rst=0 req1=0 req2=0 gnt1=0 gnt2=0
#                 1100 clk=0 rst=0 req1=1 req2=0 gnt1=1 gnt2=0
#                 1105 clk=1 rst=0 req1=1 req2=0 gnt1=1 gnt2=0
#                 1110 clk=0 rst=0 req1=0 req2=1 gnt1=0 gnt2=1
#                 1115 clk=1 rst=0 req1=0 req2=1 gnt1=0 gnt2=1
#                 1120 clk=0 rst=0 req1=0 req2=0 gnt1=0 gnt2=0
#                 1125 clk=1 rst=0 req1=0 req2=0 gnt1=0 gnt2=0
#                 1130 clk=0 rst=0 req1=1 req2=0 gnt1=1 gnt2=0
#                 1135 clk=1 rst=0 req1=1 req2=0 gnt1=1 gnt2=0
#                 1140 clk=0 rst=0 req1=0 req2=1 gnt1=0 gnt2=1
#                 1145 clk=1 rst=0 req1=0 req2=1 gnt1=0 gnt2=1
#                 1150 clk=0 rst=0 req1=1 req2=1 gnt1=1 gnt2=0
#                 1155 clk=1 rst=0 req1=1 req2=1 gnt1=0 gnt2=1
#                 1160 clk=0 rst=0 req1=0 req2=0 gnt1=0 gnt2=0
#                 1165 clk=1 rst=0 req1=0 req2=0 gnt1=0 gnt2=0
#                 1170 clk=0 rst=0 req1=0 req2=1 gnt1=0 gnt2=1
#                 1175 clk=1 rst=0 req1=0 req2=1 gnt1=0 gnt2=1
#                 1180 clk=0 rst=0 req1=0 req2=0 gnt1=0 gnt2=0
#                 1185 clk=1 rst=0 req1=0 req2=0 gnt1=0 gnt2=0
#                 1190 clk=0 rst=0 req1=1 req2=0 gnt1=1 gnt2=0
#                 1195 clk=1 rst=0 req1=1 req2=0 gnt1=1 gnt2=0
#                 1200 clk=0 rst=0 req1=0 req2=0 gnt1=0 gnt2=0
#                 1205 clk=1 rst=0 req1=0 req2=0 gnt1=0 gnt2=0
#                 1210 clk=0 rst=0 req1=0 req2=1 gnt1=0 gnt2=1
#                 1215 clk=1 rst=0 req1=0 req2=1 gnt1=0 gnt2=1
#                 1220 clk=0 rst=0 req1=0 req2=0 gnt1=0 gnt2=0
#                 1225 clk=1 rst=0 req1=0 req2=0 gnt1=0 gnt2=0
#                 1230 clk=0 rst=0 req1=0 req2=1 gnt1=0 gnt2=1
#                 1235 clk=1 rst=0 req1=0 req2=1 gnt1=0 gnt2=1
#                 1240 clk=0 rst=0 req1=1 req2=0 gnt1=1 gnt2=0
#                 1245 clk=1 rst=0 req1=1 req2=0 gnt1=1 gnt2=0
#                 1250 clk=0 rst=0 req1=1 req2=1 gnt1=0 gnt2=1
#                 1255 clk=1 rst=0 req1=1 req2=1 gnt1=1 gnt2=0
#                 1260 clk=0 rst=0 req1=1 req2=1 gnt1=1 gnt2=0
#                 1265 clk=1 rst=0 req1=1 req2=1 gnt1=0 gnt2=1
#                 1270 clk=0 rst=0 req1=0 req2=1 gnt1=0 gnt2=1
#                 1275 clk=1 rst=0 req1=0 req2=1 gnt1=0 gnt2=1
#                 1280 clk=0 rst=0 req1=1 req2=1 gnt1=1 gnt2=0
#                 1285 clk=1 rst=0 req1=1 req2=1 gnt1=0 gnt2=1
#                 1290 clk=0 rst=0 req1=0 req2=0 gnt1=0 gnt2=0
#                 1295 clk=1 rst=0 req1=0 req2=0 gnt1=0 gnt2=0
#                 1300 clk=0 rst=0 req1=1 req2=0 gnt1=1 gnt2=0
#                 1305 clk=1 rst=0 req1=1 req2=0 gnt1=1 gnt2=0
#                 1310 clk=0 rst=0 req1=0 req2=1 gnt1=0 gnt2=1
#                 1315 clk=1 rst=0 req1=0 req2=1 gnt1=0 gnt2=1
#                 1320 clk=0 rst=0 req1=1 req2=0 gnt1=1 gnt2=0
#                 1325 clk=1 rst=0 req1=1 req2=0 gnt1=1 gnt2=0
#                 1330 clk=0 rst=0 req1=0 req2=1 gnt1=0 gnt2=1
#                 1335 clk=1 rst=0 req1=0 req2=1 gnt1=0 gnt2=1
#                 1340 clk=0 rst=0 req1=0 req2=0 gnt1=0 gnt2=0
#                 1345 clk=1 rst=0 req1=0 req2=0 gnt1=0 gnt2=0
#                 1350 clk=0 rst=0 req1=1 req2=0 gnt1=1 gnt2=0
#                 1355 clk=1 rst=0 req1=1 req2=0 gnt1=1 gnt2=0
#                 1360 clk=0 rst=0 req1=1 req2=1 gnt1=0 gnt2=1
#                 1365 clk=1 rst=0 req1=1 req2=1 gnt1=1 gnt2=0
#                 1370 clk=0 rst=0 req1=0 req2=1 gnt1=0 gnt2=1
#                 1375 clk=1 rst=0 req1=0 req2=1 gnt1=0 gnt2=1
#                 1380 clk=0 rst=0 req1=0 req2=1 gnt1=0 gnt2=1
#                 1385 clk=1 rst=0 req1=0 req2=1 gnt1=0 gnt2=1
#                 1390 clk=0 rst=0 req1=0 req2=0 gnt1=0 gnt2=0
#                 1395 clk=1 rst=0 req1=0 req2=0 gnt1=0 gnt2=0
#                 1400 clk=0 rst=0 req1=1 req2=0 gnt1=1 gnt2=0
#                 1405 clk=1 rst=0 req1=1 req2=0 gnt1=1 gnt2=0
#                 1410 clk=0 rst=0 req1=0 req2=0 gnt1=0 gnt2=0
#                 1415 clk=1 rst=0 req1=0 req2=0 gnt1=0 gnt2=0
#                 1420 clk=0 rst=0 req1=1 req2=1 gnt1=1 gnt2=0
#                 1425 clk=1 rst=0 req1=1 req2=1 gnt1=0 gnt2=1
#                 1430 clk=0 rst=0 req1=1 req2=1 gnt1=0 gnt2=1
#                 1435 clk=1 rst=0 req1=1 req2=1 gnt1=1 gnt2=0
#                 1440 clk=0 rst=0 req1=1 req2=0 gnt1=1 gnt2=0
#                 1445 clk=1 rst=0 req1=1 req2=0 gnt1=1 gnt2=0
#                 1450 clk=0 rst=0 req1=1 req2=1 gnt1=0 gnt2=1
#                 1455 clk=1 rst=0 req1=1 req2=1 gnt1=1 gnt2=0
#                 1460 clk=0 rst=0 req1=1 req2=0 gnt1=1 gnt2=0
#                 1465 clk=1 rst=0 req1=1 req2=0 gnt1=1 gnt2=0
#                 1470 clk=0 rst=0 req1=0 req2=0 gnt1=0 gnt2=0
#                 1475 clk=1 rst=0 req1=0 req2=0 gnt1=0 gnt2=0
#                 1480 clk=0 rst=0 req1=0 req2=0 gnt1=0 gnt2=0
#                 1485 clk=1 rst=0 req1=0 req2=0 gnt1=0 gnt2=0
#                 1490 clk=0 rst=0 req1=0 req2=1 gnt1=0 gnt2=1
#                 1495 clk=1 rst=0 req1=0 req2=1 gnt1=0 gnt2=1
#                 1500 clk=0 rst=0 req1=1 req2=1 gnt1=1 gnt2=0
#                 1505 clk=1 rst=0 req1=1 req2=1 gnt1=0 gnt2=1
#                 1510 clk=0 rst=0 req1=1 req2=1 gnt1=0 gnt2=1
#                 1515 clk=1 rst=0 req1=1 req2=1 gnt1=1 gnt2=0
#                 1520 clk=0 rst=0 req1=1 req2=1 gnt1=1 gnt2=0
#                 1525 clk=1 rst=0 req1=1 req2=1 gnt1=0 gnt2=1
#                 1530 clk=0 rst=0 req1=0 req2=1 gnt1=0 gnt2=1
#                 1535 clk=1 rst=0 req1=0 req2=1 gnt1=0 gnt2=1
#                 1540 clk=0 rst=0 req1=1 req2=1 gnt1=1 gnt2=0
#                 1545 clk=1 rst=0 req1=1 req2=1 gnt1=0 gnt2=1
#                 1550 clk=0 rst=0 req1=1 req2=1 gnt1=0 gnt2=1
#                 1555 clk=1 rst=0 req1=1 req2=1 gnt1=1 gnt2=0
#                 1560 clk=0 rst=0 req1=1 req2=1 gnt1=1 gnt2=0
#                 1565 clk=1 rst=0 req1=1 req2=1 gnt1=0 gnt2=1
#                 1570 clk=0 rst=0 req1=1 req2=0 gnt1=1 gnt2=0
#                 1575 clk=1 rst=0 req1=1 req2=0 gnt1=1 gnt2=0
#                 1580 clk=0 rst=0 req1=0 req2=1 gnt1=0 gnt2=1
#                 1585 clk=1 rst=0 req1=0 req2=1 gnt1=0 gnt2=1
#                 1590 clk=0 rst=0 req1=1 req2=0 gnt1=1 gnt2=0
#                 1595 clk=1 rst=0 req1=1 req2=0 gnt1=1 gnt2=0
#                 1600 clk=0 rst=0 req1=0 req2=0 gnt1=0 gnt2=0
#                 1605 clk=1 rst=0 req1=0 req2=0 gnt1=0 gnt2=0
#                 1610 clk=0 rst=0 req1=0 req2=1 gnt1=0 gnt2=1
#                 1615 clk=1 rst=0 req1=0 req2=1 gnt1=0 gnt2=1
#                 1620 clk=0 rst=0 req1=0 req2=0 gnt1=0 gnt2=0
#                 1625 clk=1 rst=0 req1=0 req2=0 gnt1=0 gnt2=0
#                 1630 clk=0 rst=0 req1=0 req2=0 gnt1=0 gnt2=0
#                 1635 clk=1 rst=0 req1=0 req2=0 gnt1=0 gnt2=0
#                 1640 clk=0 rst=0 req1=0 req2=0 gnt1=0 gnt2=0
#                 1645 clk=1 rst=0 req1=0 req2=0 gnt1=0 gnt2=0
#                 1650 clk=0 rst=0 req1=1 req2=0 gnt1=1 gnt2=0
#                 1655 clk=1 rst=0 req1=1 req2=0 gnt1=1 gnt2=0
#                 1660 clk=0 rst=0 req1=0 req2=1 gnt1=0 gnt2=1
#                 1665 clk=1 rst=0 req1=0 req2=1 gnt1=0 gnt2=1
#                 1670 clk=0 rst=0 req1=0 req2=0 gnt1=0 gnt2=0
#                 1675 clk=1 rst=0 req1=0 req2=0 gnt1=0 gnt2=0
#                 1680 clk=0 rst=0 req1=0 req2=0 gnt1=0 gnt2=0
#                 1685 clk=1 rst=0 req1=0 req2=0 gnt1=0 gnt2=0
#                 1690 clk=0 rst=0 req1=1 req2=1 gnt1=1 gnt2=0
#                 1695 clk=1 rst=0 req1=1 req2=1 gnt1=0 gnt2=1
#                 1700 clk=0 rst=0 req1=1 req2=1 gnt1=0 gnt2=1
#                 1705 clk=1 rst=0 req1=1 req2=1 gnt1=1 gnt2=0
#                 1710 clk=0 rst=0 req1=1 req2=0 gnt1=1 gnt2=0
#                 1715 clk=1 rst=0 req1=1 req2=0 gnt1=1 gnt2=0
#                 1720 clk=0 rst=0 req1=1 req2=1 gnt1=0 gnt2=1
#                 1725 clk=1 rst=0 req1=1 req2=1 gnt1=1 gnt2=0
#                 1730 clk=0 rst=0 req1=1 req2=0 gnt1=1 gnt2=0
#                 1735 clk=1 rst=0 req1=1 req2=0 gnt1=1 gnt2=0
#                 1740 clk=0 rst=0 req1=1 req2=0 gnt1=1 gnt2=0
#                 1745 clk=1 rst=0 req1=1 req2=0 gnt1=1 gnt2=0
#                 1750 clk=0 rst=0 req1=0 req2=1 gnt1=0 gnt2=1
#                 1755 clk=1 rst=0 req1=0 req2=1 gnt1=0 gnt2=1
#                 1760 clk=0 rst=0 req1=1 req2=0 gnt1=1 gnt2=0
#                 1765 clk=1 rst=0 req1=1 req2=0 gnt1=1 gnt2=0
#                 1770 clk=0 rst=0 req1=1 req2=0 gnt1=1 gnt2=0
#                 1775 clk=1 rst=0 req1=1 req2=0 gnt1=1 gnt2=0
#                 1780 clk=0 rst=0 req1=0 req2=1 gnt1=0 gnt2=1
#                 1785 clk=1 rst=0 req1=0 req2=1 gnt1=0 gnt2=1
#                 1790 clk=0 rst=0 req1=0 req2=0 gnt1=0 gnt2=0
#                 1795 clk=1 rst=0 req1=0 req2=0 gnt1=0 gnt2=0
#                 1800 clk=0 rst=0 req1=0 req2=0 gnt1=0 gnt2=0
#                 1805 clk=1 rst=0 req1=0 req2=0 gnt1=0 gnt2=0
#                 1810 clk=0 rst=0 req1=1 req2=1 gnt1=1 gnt2=0
#                 1815 clk=1 rst=0 req1=1 req2=1 gnt1=0 gnt2=1
#                 1820 clk=0 rst=0 req1=1 req2=1 gnt1=0 gnt2=1
#                 1825 clk=1 rst=0 req1=1 req2=1 gnt1=1 gnt2=0
#                 1830 clk=0 rst=0 req1=0 req2=1 gnt1=0 gnt2=1
#                 1835 clk=1 rst=0 req1=0 req2=1 gnt1=0 gnt2=1
